medline16n0001.xml.gz
medline16n0002.xml.gz
medline16n0003.xml.gz
medline16n0004.xml.gz
medline16n0005.xml.gz
medline16n0006.xml.gz
medline16n0007.xml.gz
medline16n0008.xml.gz
medline16n0009.xml.gz
medline16n0010.xml.gz
medline16n0011.xml.gz
medline16n0012.xml.gz
medline16n0013.xml.gz
medline16n0014.xml.gz
medline16n0015.xml.gz
medline16n0016.xml.gz
medline16n0017.xml.gz
medline16n0018.xml.gz
medline16n0019.xml.gz
medline16n0020.xml.gz
medline16n0021.xml.gz
medline16n0022.xml.gz
medline16n0023.xml.gz
medline16n0024.xml.gz
medline16n0025.xml.gz
medline16n0026.xml.gz
medline16n0027.xml.gz
medline16n0028.xml.gz
medline16n0029.xml.gz
medline16n0030.xml.gz
medline16n0031.xml.gz
medline16n0032.xml.gz
medline16n0033.xml.gz
medline16n0034.xml.gz
medline16n0035.xml.gz
medline16n0036.xml.gz
medline16n0037.xml.gz
medline16n0038.xml.gz
medline16n0039.xml.gz
medline16n0040.xml.gz
medline16n0041.xml.gz
medline16n0042.xml.gz
medline16n0043.xml.gz
medline16n0044.xml.gz
medline16n0045.xml.gz
medline16n0046.xml.gz
medline16n0047.xml.gz
medline16n0048.xml.gz
medline16n0049.xml.gz
medline16n0050.xml.gz
medline16n0051.xml.gz
medline16n0052.xml.gz
medline16n0053.xml.gz
medline16n0054.xml.gz
medline16n0055.xml.gz
medline16n0056.xml.gz
medline16n0057.xml.gz
medline16n0058.xml.gz
medline16n0059.xml.gz
medline16n0060.xml.gz
medline16n0061.xml.gz
medline16n0062.xml.gz
medline16n0063.xml.gz
medline16n0064.xml.gz
medline16n0065.xml.gz
medline16n0066.xml.gz
medline16n0067.xml.gz
medline16n0068.xml.gz
medline16n0069.xml.gz
medline16n0070.xml.gz
medline16n0071.xml.gz
medline16n0072.xml.gz
medline16n0073.xml.gz
medline16n0074.xml.gz
medline16n0075.xml.gz
medline16n0076.xml.gz
medline16n0077.xml.gz
medline16n0078.xml.gz
medline16n0079.xml.gz
medline16n0080.xml.gz
medline16n0081.xml.gz
medline16n0082.xml.gz
medline16n0083.xml.gz
medline16n0084.xml.gz
medline16n0085.xml.gz
medline16n0086.xml.gz
medline16n0087.xml.gz
medline16n0088.xml.gz
medline16n0089.xml.gz
medline16n0090.xml.gz
medline16n0091.xml.gz
medline16n0092.xml.gz
medline16n0093.xml.gz
medline16n0094.xml.gz
medline16n0095.xml.gz
medline16n0096.xml.gz
medline16n0097.xml.gz
medline16n0098.xml.gz
medline16n0099.xml.gz
medline16n0100.xml.gz
medline16n0101.xml.gz
medline16n0102.xml.gz
medline16n0103.xml.gz
medline16n0104.xml.gz
medline16n0105.xml.gz
medline16n0106.xml.gz
medline16n0107.xml.gz
medline16n0108.xml.gz
medline16n0109.xml.gz
medline16n0110.xml.gz
medline16n0111.xml.gz
medline16n0112.xml.gz
medline16n0113.xml.gz
medline16n0114.xml.gz
medline16n0115.xml.gz
medline16n0116.xml.gz
medline16n0117.xml.gz
medline16n0118.xml.gz
medline16n0119.xml.gz
medline16n0120.xml.gz
medline16n0121.xml.gz
medline16n0122.xml.gz
medline16n0123.xml.gz
medline16n0124.xml.gz
medline16n0125.xml.gz
medline16n0126.xml.gz
medline16n0127.xml.gz
medline16n0128.xml.gz
medline16n0129.xml.gz
medline16n0130.xml.gz
medline16n0131.xml.gz
medline16n0132.xml.gz
medline16n0133.xml.gz
medline16n0134.xml.gz
medline16n0135.xml.gz
medline16n0136.xml.gz
medline16n0137.xml.gz
medline16n0138.xml.gz
medline16n0139.xml.gz
medline16n0140.xml.gz
medline16n0141.xml.gz
medline16n0142.xml.gz
medline16n0143.xml.gz
medline16n0144.xml.gz
medline16n0145.xml.gz
medline16n0146.xml.gz
medline16n0147.xml.gz
medline16n0148.xml.gz
medline16n0149.xml.gz
medline16n0150.xml.gz
medline16n0151.xml.gz
medline16n0152.xml.gz
medline16n0153.xml.gz
medline16n0154.xml.gz
medline16n0155.xml.gz
medline16n0156.xml.gz
medline16n0157.xml.gz
medline16n0158.xml.gz
medline16n0159.xml.gz
medline16n0160.xml.gz
medline16n0161.xml.gz
medline16n0162.xml.gz
medline16n0163.xml.gz
medline16n0164.xml.gz
medline16n0165.xml.gz
medline16n0166.xml.gz
medline16n0167.xml.gz
medline16n0168.xml.gz
medline16n0169.xml.gz
medline16n0170.xml.gz
medline16n0171.xml.gz
medline16n0172.xml.gz
medline16n0173.xml.gz
medline16n0174.xml.gz
medline16n0175.xml.gz
medline16n0176.xml.gz
medline16n0177.xml.gz
medline16n0178.xml.gz
medline16n0179.xml.gz
medline16n0180.xml.gz
medline16n0181.xml.gz
medline16n0182.xml.gz
medline16n0183.xml.gz
medline16n0184.xml.gz
medline16n0185.xml.gz
medline16n0186.xml.gz
medline16n0187.xml.gz
medline16n0188.xml.gz
medline16n0189.xml.gz
medline16n0190.xml.gz
medline16n0191.xml.gz
medline16n0192.xml.gz
medline16n0193.xml.gz
medline16n0194.xml.gz
medline16n0195.xml.gz
medline16n0196.xml.gz
medline16n0197.xml.gz
medline16n0198.xml.gz
medline16n0199.xml.gz
medline16n0200.xml.gz
medline16n0201.xml.gz
medline16n0202.xml.gz
medline16n0203.xml.gz
medline16n0204.xml.gz
medline16n0205.xml.gz
medline16n0206.xml.gz
medline16n0207.xml.gz
medline16n0208.xml.gz
medline16n0209.xml.gz
medline16n0210.xml.gz
medline16n0211.xml.gz
medline16n0212.xml.gz
medline16n0213.xml.gz
medline16n0214.xml.gz
medline16n0215.xml.gz
medline16n0216.xml.gz
medline16n0217.xml.gz
medline16n0218.xml.gz
medline16n0219.xml.gz
medline16n0220.xml.gz
medline16n0221.xml.gz
medline16n0222.xml.gz
medline16n0223.xml.gz
medline16n0224.xml.gz
medline16n0225.xml.gz
medline16n0226.xml.gz
medline16n0227.xml.gz
medline16n0228.xml.gz
medline16n0229.xml.gz
medline16n0230.xml.gz
medline16n0231.xml.gz
medline16n0232.xml.gz
medline16n0233.xml.gz
medline16n0234.xml.gz
medline16n0235.xml.gz
medline16n0236.xml.gz
medline16n0237.xml.gz
medline16n0238.xml.gz
medline16n0239.xml.gz
medline16n0240.xml.gz
medline16n0241.xml.gz
medline16n0242.xml.gz
medline16n0243.xml.gz
medline16n0244.xml.gz
medline16n0245.xml.gz
medline16n0246.xml.gz
medline16n0247.xml.gz
medline16n0248.xml.gz
medline16n0249.xml.gz
medline16n0250.xml.gz
medline16n0251.xml.gz
medline16n0252.xml.gz
medline16n0253.xml.gz
medline16n0254.xml.gz
medline16n0255.xml.gz
medline16n0256.xml.gz
medline16n0257.xml.gz
medline16n0258.xml.gz
medline16n0259.xml.gz
medline16n0260.xml.gz
medline16n0261.xml.gz
medline16n0262.xml.gz
medline16n0263.xml.gz
medline16n0264.xml.gz
medline16n0265.xml.gz
medline16n0266.xml.gz
medline16n0267.xml.gz
medline16n0268.xml.gz
medline16n0269.xml.gz
medline16n0270.xml.gz
medline16n0271.xml.gz
medline16n0272.xml.gz
medline16n0273.xml.gz
medline16n0274.xml.gz
medline16n0275.xml.gz
medline16n0276.xml.gz
medline16n0277.xml.gz
medline16n0278.xml.gz
medline16n0279.xml.gz
medline16n0280.xml.gz
medline16n0281.xml.gz
medline16n0282.xml.gz
medline16n0283.xml.gz
medline16n0284.xml.gz
medline16n0285.xml.gz
medline16n0286.xml.gz
medline16n0287.xml.gz
medline16n0288.xml.gz
medline16n0289.xml.gz
medline16n0290.xml.gz
medline16n0291.xml.gz
medline16n0292.xml.gz
medline16n0293.xml.gz
medline16n0294.xml.gz
medline16n0295.xml.gz
medline16n0296.xml.gz
medline16n0297.xml.gz
medline16n0298.xml.gz
medline16n0299.xml.gz
medline16n0300.xml.gz
medline16n0301.xml.gz
medline16n0302.xml.gz
medline16n0303.xml.gz
medline16n0304.xml.gz
medline16n0305.xml.gz
medline16n0306.xml.gz
medline16n0307.xml.gz
medline16n0308.xml.gz
medline16n0309.xml.gz
medline16n0310.xml.gz
medline16n0311.xml.gz
medline16n0312.xml.gz
medline16n0313.xml.gz
medline16n0314.xml.gz
medline16n0315.xml.gz
medline16n0316.xml.gz
medline16n0317.xml.gz
medline16n0318.xml.gz
medline16n0319.xml.gz
medline16n0320.xml.gz
medline16n0321.xml.gz
medline16n0322.xml.gz
medline16n0323.xml.gz
medline16n0324.xml.gz
medline16n0325.xml.gz
medline16n0326.xml.gz
medline16n0327.xml.gz
medline16n0328.xml.gz
medline16n0329.xml.gz
medline16n0330.xml.gz
medline16n0331.xml.gz
medline16n0332.xml.gz
medline16n0333.xml.gz
medline16n0334.xml.gz
medline16n0335.xml.gz
medline16n0336.xml.gz
medline16n0337.xml.gz
medline16n0338.xml.gz
medline16n0339.xml.gz
medline16n0340.xml.gz
medline16n0341.xml.gz
medline16n0342.xml.gz
medline16n0343.xml.gz
medline16n0344.xml.gz
medline16n0345.xml.gz
medline16n0346.xml.gz
medline16n0347.xml.gz
medline16n0348.xml.gz
medline16n0349.xml.gz
medline16n0350.xml.gz
medline16n0351.xml.gz
medline16n0352.xml.gz
medline16n0353.xml.gz
medline16n0354.xml.gz
medline16n0355.xml.gz
medline16n0356.xml.gz
medline16n0357.xml.gz
medline16n0358.xml.gz
medline16n0359.xml.gz
medline16n0360.xml.gz
medline16n0361.xml.gz
medline16n0362.xml.gz
medline16n0363.xml.gz
medline16n0364.xml.gz
medline16n0365.xml.gz
medline16n0366.xml.gz
medline16n0367.xml.gz
medline16n0368.xml.gz
medline16n0369.xml.gz
medline16n0370.xml.gz
medline16n0371.xml.gz
medline16n0372.xml.gz
medline16n0373.xml.gz
medline16n0374.xml.gz
medline16n0375.xml.gz
medline16n0376.xml.gz
medline16n0377.xml.gz
medline16n0378.xml.gz
medline16n0379.xml.gz
medline16n0380.xml.gz
medline16n0381.xml.gz
medline16n0382.xml.gz
medline16n0383.xml.gz
medline16n0384.xml.gz
medline16n0385.xml.gz
medline16n0386.xml.gz
medline16n0387.xml.gz
medline16n0388.xml.gz
medline16n0389.xml.gz
medline16n0390.xml.gz
medline16n0391.xml.gz
medline16n0392.xml.gz
medline16n0393.xml.gz
medline16n0394.xml.gz
medline16n0395.xml.gz
medline16n0396.xml.gz
medline16n0397.xml.gz
medline16n0398.xml.gz
medline16n0399.xml.gz
medline16n0400.xml.gz
medline16n0401.xml.gz
medline16n0402.xml.gz
medline16n0403.xml.gz
medline16n0404.xml.gz
medline16n0405.xml.gz
medline16n0406.xml.gz
medline16n0407.xml.gz
medline16n0408.xml.gz
medline16n0409.xml.gz
medline16n0410.xml.gz
medline16n0411.xml.gz
medline16n0412.xml.gz
medline16n0413.xml.gz
medline16n0414.xml.gz
medline16n0415.xml.gz
medline16n0416.xml.gz
medline16n0417.xml.gz
medline16n0418.xml.gz
medline16n0419.xml.gz
medline16n0420.xml.gz
medline16n0421.xml.gz
medline16n0422.xml.gz
medline16n0423.xml.gz
medline16n0424.xml.gz
medline16n0425.xml.gz
medline16n0426.xml.gz
medline16n0427.xml.gz
medline16n0428.xml.gz
medline16n0429.xml.gz
medline16n0430.xml.gz
medline16n0431.xml.gz
medline16n0432.xml.gz
medline16n0433.xml.gz
medline16n0434.xml.gz
medline16n0435.xml.gz
medline16n0436.xml.gz
medline16n0437.xml.gz
medline16n0438.xml.gz
medline16n0439.xml.gz
medline16n0440.xml.gz
medline16n0441.xml.gz
medline16n0442.xml.gz
medline16n0443.xml.gz
medline16n0444.xml.gz
medline16n0445.xml.gz
medline16n0446.xml.gz
medline16n0447.xml.gz
medline16n0448.xml.gz
medline16n0449.xml.gz
medline16n0450.xml.gz
medline16n0451.xml.gz
medline16n0452.xml.gz
medline16n0453.xml.gz
medline16n0454.xml.gz
medline16n0455.xml.gz
medline16n0456.xml.gz
medline16n0457.xml.gz
medline16n0458.xml.gz
medline16n0459.xml.gz
medline16n0460.xml.gz
medline16n0461.xml.gz
medline16n0462.xml.gz
medline16n0463.xml.gz
medline16n0464.xml.gz
medline16n0465.xml.gz
medline16n0466.xml.gz
medline16n0467.xml.gz
medline16n0468.xml.gz
medline16n0469.xml.gz
medline16n0470.xml.gz
medline16n0471.xml.gz
medline16n0472.xml.gz
medline16n0473.xml.gz
medline16n0474.xml.gz
medline16n0475.xml.gz
medline16n0476.xml.gz
medline16n0477.xml.gz
medline16n0478.xml.gz
medline16n0479.xml.gz
medline16n0480.xml.gz
medline16n0481.xml.gz
medline16n0482.xml.gz
medline16n0483.xml.gz
medline16n0484.xml.gz
medline16n0485.xml.gz
medline16n0486.xml.gz
medline16n0487.xml.gz
medline16n0488.xml.gz
medline16n0489.xml.gz
medline16n0490.xml.gz
medline16n0491.xml.gz
medline16n0492.xml.gz
medline16n0493.xml.gz
medline16n0494.xml.gz
medline16n0495.xml.gz
medline16n0496.xml.gz
medline16n0497.xml.gz
medline16n0498.xml.gz
medline16n0499.xml.gz
medline16n0500.xml.gz
medline16n0501.xml.gz
medline16n0502.xml.gz
medline16n0503.xml.gz
medline16n0504.xml.gz
medline16n0505.xml.gz
medline16n0506.xml.gz
medline16n0507.xml.gz
medline16n0508.xml.gz
medline16n0509.xml.gz
medline16n0510.xml.gz
medline16n0511.xml.gz
medline16n0512.xml.gz
medline16n0513.xml.gz
medline16n0514.xml.gz
medline16n0515.xml.gz
medline16n0516.xml.gz
medline16n0517.xml.gz
medline16n0518.xml.gz
medline16n0519.xml.gz
medline16n0520.xml.gz
medline16n0521.xml.gz
medline16n0522.xml.gz
medline16n0523.xml.gz
medline16n0524.xml.gz
medline16n0525.xml.gz
medline16n0526.xml.gz
medline16n0527.xml.gz
medline16n0528.xml.gz
medline16n0529.xml.gz
medline16n0530.xml.gz
medline16n0531.xml.gz
medline16n0532.xml.gz
medline16n0533.xml.gz
medline16n0534.xml.gz
medline16n0535.xml.gz
medline16n0536.xml.gz
medline16n0537.xml.gz
medline16n0538.xml.gz
medline16n0539.xml.gz
medline16n0540.xml.gz
medline16n0541.xml.gz
medline16n0542.xml.gz
medline16n0543.xml.gz
medline16n0544.xml.gz
medline16n0545.xml.gz
medline16n0546.xml.gz
medline16n0547.xml.gz
medline16n0548.xml.gz
medline16n0549.xml.gz
medline16n0550.xml.gz
medline16n0551.xml.gz
medline16n0552.xml.gz
medline16n0553.xml.gz
medline16n0554.xml.gz
medline16n0555.xml.gz
medline16n0556.xml.gz
medline16n0557.xml.gz
medline16n0558.xml.gz
medline16n0559.xml.gz
medline16n0560.xml.gz
medline16n0561.xml.gz
medline16n0562.xml.gz
medline16n0563.xml.gz
medline16n0564.xml.gz
medline16n0565.xml.gz
medline16n0566.xml.gz
medline16n0567.xml.gz
medline16n0568.xml.gz
medline16n0569.xml.gz
medline16n0570.xml.gz
medline16n0571.xml.gz
medline16n0572.xml.gz
medline16n0573.xml.gz
medline16n0574.xml.gz
medline16n0575.xml.gz
medline16n0576.xml.gz
medline16n0577.xml.gz
medline16n0578.xml.gz
medline16n0579.xml.gz
medline16n0580.xml.gz
medline16n0581.xml.gz
medline16n0582.xml.gz
medline16n0583.xml.gz
medline16n0584.xml.gz
medline16n0585.xml.gz
medline16n0586.xml.gz
medline16n0587.xml.gz
medline16n0588.xml.gz
medline16n0589.xml.gz
medline16n0590.xml.gz
medline16n0591.xml.gz
medline16n0592.xml.gz
medline16n0593.xml.gz
medline16n0594.xml.gz
medline16n0595.xml.gz
medline16n0596.xml.gz
medline16n0597.xml.gz
medline16n0598.xml.gz
medline16n0599.xml.gz
medline16n0600.xml.gz
medline16n0601.xml.gz
medline16n0602.xml.gz
medline16n0603.xml.gz
medline16n0604.xml.gz
medline16n0605.xml.gz
medline16n0606.xml.gz
medline16n0607.xml.gz
medline16n0608.xml.gz
medline16n0609.xml.gz
medline16n0610.xml.gz
medline16n0611.xml.gz
medline16n0612.xml.gz
medline16n0613.xml.gz
medline16n0614.xml.gz
medline16n0615.xml.gz
medline16n0616.xml.gz
medline16n0617.xml.gz
medline16n0618.xml.gz
medline16n0619.xml.gz
medline16n0620.xml.gz
medline16n0621.xml.gz
medline16n0622.xml.gz
medline16n0623.xml.gz
medline16n0624.xml.gz
medline16n0625.xml.gz
medline16n0626.xml.gz
medline16n0627.xml.gz
medline16n0628.xml.gz
medline16n0629.xml.gz
medline16n0630.xml.gz
medline16n0631.xml.gz
medline16n0632.xml.gz
medline16n0633.xml.gz
medline16n0634.xml.gz
medline16n0635.xml.gz
medline16n0636.xml.gz
medline16n0637.xml.gz
medline16n0638.xml.gz
medline16n0639.xml.gz
medline16n0640.xml.gz
medline16n0641.xml.gz
medline16n0642.xml.gz
medline16n0643.xml.gz
medline16n0644.xml.gz
medline16n0645.xml.gz
medline16n0646.xml.gz
medline16n0647.xml.gz
medline16n0648.xml.gz
medline16n0649.xml.gz
medline16n0650.xml.gz
medline16n0651.xml.gz
medline16n0652.xml.gz
medline16n0653.xml.gz
medline16n0654.xml.gz
medline16n0655.xml.gz
medline16n0656.xml.gz
medline16n0657.xml.gz
medline16n0658.xml.gz
medline16n0659.xml.gz
medline16n0660.xml.gz
medline16n0661.xml.gz
medline16n0662.xml.gz
medline16n0663.xml.gz
medline16n0664.xml.gz
medline16n0665.xml.gz
medline16n0666.xml.gz
medline16n0667.xml.gz
medline16n0668.xml.gz
medline16n0669.xml.gz
medline16n0670.xml.gz
medline16n0671.xml.gz
medline16n0672.xml.gz
medline16n0673.xml.gz
medline16n0674.xml.gz
medline16n0675.xml.gz
medline16n0676.xml.gz
medline16n0677.xml.gz
medline16n0678.xml.gz
medline16n0679.xml.gz
medline16n0680.xml.gz
medline16n0681.xml.gz
medline16n0682.xml.gz
medline16n0683.xml.gz
medline16n0684.xml.gz
medline16n0685.xml.gz
medline16n0686.xml.gz
medline16n0687.xml.gz
medline16n0688.xml.gz
medline16n0689.xml.gz
medline16n0690.xml.gz
medline16n0691.xml.gz
medline16n0692.xml.gz
medline16n0693.xml.gz
medline16n0694.xml.gz
medline16n0695.xml.gz
medline16n0696.xml.gz
medline16n0697.xml.gz
medline16n0698.xml.gz
medline16n0699.xml.gz
medline16n0700.xml.gz
medline16n0701.xml.gz
medline16n0702.xml.gz
medline16n0703.xml.gz
medline16n0704.xml.gz
medline16n0705.xml.gz
medline16n0706.xml.gz
medline16n0707.xml.gz
medline16n0708.xml.gz
medline16n0709.xml.gz
medline16n0710.xml.gz
medline16n0711.xml.gz
medline16n0712.xml.gz
medline16n0713.xml.gz
medline16n0714.xml.gz
medline16n0715.xml.gz
medline16n0716.xml.gz
medline16n0717.xml.gz
medline16n0718.xml.gz
medline16n0719.xml.gz
medline16n0720.xml.gz
medline16n0721.xml.gz
medline16n0722.xml.gz
medline16n0723.xml.gz
medline16n0724.xml.gz
medline16n0725.xml.gz
medline16n0726.xml.gz
medline16n0727.xml.gz
medline16n0728.xml.gz
medline16n0729.xml.gz
medline16n0730.xml.gz
medline16n0731.xml.gz
medline16n0732.xml.gz
medline16n0733.xml.gz
medline16n0734.xml.gz
medline16n0735.xml.gz
medline16n0736.xml.gz
medline16n0737.xml.gz
medline16n0738.xml.gz
medline16n0739.xml.gz
medline16n0740.xml.gz
medline16n0741.xml.gz
medline16n0742.xml.gz
medline16n0743.xml.gz
medline16n0744.xml.gz
medline16n0745.xml.gz
medline16n0746.xml.gz
medline16n0747.xml.gz
medline16n0748.xml.gz
medline16n0749.xml.gz
medline16n0750.xml.gz
medline16n0751.xml.gz
medline16n0752.xml.gz
medline16n0753.xml.gz
medline16n0754.xml.gz
medline16n0755.xml.gz
medline16n0756.xml.gz
medline16n0757.xml.gz
medline16n0758.xml.gz
medline16n0759.xml.gz
medline16n0760.xml.gz
medline16n0761.xml.gz
medline16n0762.xml.gz
medline16n0763.xml.gz
medline16n0764.xml.gz
medline16n0765.xml.gz
medline16n0766.xml.gz
medline16n0767.xml.gz
medline16n0768.xml.gz
medline16n0769.xml.gz
medline16n0770.xml.gz
medline16n0771.xml.gz
medline16n0772.xml.gz
medline16n0773.xml.gz
medline16n0774.xml.gz
medline16n0775.xml.gz
medline16n0776.xml.gz
medline16n0777.xml.gz
medline16n0778.xml.gz
medline16n0779.xml.gz
medline16n0780.xml.gz
medline16n0781.xml.gz
medline16n0782.xml.gz
medline16n0783.xml.gz
medline16n0784.xml.gz
medline16n0785.xml.gz
medline16n0786.xml.gz
medline16n0787.xml.gz
medline16n0788.xml.gz
medline16n0789.xml.gz
medline16n0790.xml.gz
medline16n0791.xml.gz
medline16n0792.xml.gz
medline16n0793.xml.gz
medline16n0794.xml.gz
medline16n0795.xml.gz
medline16n0796.xml.gz
medline16n0797.xml.gz
medline16n0798.xml.gz
medline16n0799.xml.gz
medline16n0800.xml.gz
medline16n0801.xml.gz
medline16n0802.xml.gz
medline16n0803.xml.gz
medline16n0804.xml.gz
medline16n0805.xml.gz
medline16n0806.xml.gz
medline16n0807.xml.gz
medline16n0808.xml.gz
medline16n0809.xml.gz
medline16n0810.xml.gz
medline16n0811.xml.gz
medline16n0812.xml.gz